<?xml version="1.0" encoding="utf-8"?>
<!-- Generator: Adobe Illustrator 18.0.0, SVG Export Plug-In . SVG Version: 6.00 Build 0)  -->
<!DOCTYPE svg PUBLIC "-//W3C//DTD SVG 1.1//EN" "http://www.w3.org/Graphics/SVG/1.1/DTD/svg11.dtd">
<svg version="1.1" id="Capa_1" xmlns="http://www.w3.org/2000/svg" xmlns:xlink="http://www.w3.org/1999/xlink" x="0px" y="0px"
	 viewBox="0 0 186 52" enable-background="new 0 0 186 52" xml:space="preserve">
<g>
	<polygon fill="#003B59" points="115,43 114.6,45.7 116.2,45.7 116.1,46.1 114.5,46.1 114,49.5 115.8,49.5 115.7,50 113.4,50 
		114.6,42.6 116.9,42.6 116.8,43 	"/>
	<path fill="#003B59" d="M117.6,42.9h0.5l-1,6.3c0,0,0,0.1,0,0.1c0,0.1,0.1,0.1,0.1,0.1c0.1,0,0.1,0.1,0.2,0.1c0.1,0,0.1,0,0.2,0
		l-0.1,0.5c-0.1,0-0.2,0-0.4-0.1c-0.1,0-0.2-0.1-0.3-0.2c-0.1-0.1-0.2-0.2-0.2-0.3c-0.1-0.1-0.1-0.2,0-0.3L117.6,42.9z"/>
	<path fill="#003B59" d="M122.6,44.8h0.5l-1.7,4.9c0,0.1-0.1,0.1-0.2,0.2c-0.1,0.1-0.2,0.1-0.3,0.1h-0.3c-0.1,0-0.2,0-0.2-0.1
		c-0.1-0.1-0.1-0.1-0.1-0.2l-0.1-4.9h0.5l0.1,4.7c0,0,0,0,0,0.1c0,0,0,0.1,0.1,0.1h0.1c0,0,0.1,0,0.1,0c0,0,0-0.1,0-0.1L122.6,44.8z
		"/>
	<path fill="#003B59" d="M125.1,49.4c-0.2,0.1-0.4,0.2-0.5,0.4c-0.1,0.1-0.3,0.2-0.5,0.2c-0.2,0.1-0.3,0.1-0.4,0.1
		c-0.2,0-0.4-0.1-0.6-0.3c-0.1-0.2-0.2-0.4-0.2-0.6l0.5-3.3c0-0.2,0.1-0.3,0.2-0.5c0.1-0.2,0.2-0.3,0.3-0.4c0.1-0.1,0.3-0.2,0.4-0.3
		c0.2-0.1,0.3-0.1,0.5-0.1h0.2c0.2,0,0.3,0,0.5,0.1c0.1,0.1,0.3,0.2,0.3,0.3c0.1,0.1,0.2,0.2,0.2,0.4c0,0.2,0,0.3,0,0.5l-0.5,3.3
		c0,0,0,0.1,0,0.1c0,0.1,0.1,0.1,0.1,0.1c0.1,0,0.1,0.1,0.2,0.1c0.1,0,0.1,0,0.2,0l-0.1,0.5c-0.1,0-0.2,0-0.3-0.1
		c-0.1,0-0.2-0.1-0.3-0.2c-0.1-0.1-0.2-0.1-0.2-0.2C125.2,49.5,125.1,49.4,125.1,49.4L125.1,49.4z M123.4,49.2c0,0.1,0,0.2,0.1,0.3
		c0.1,0.1,0.2,0.1,0.3,0.1c0.1,0,0.3,0,0.4-0.1c0.2-0.1,0.3-0.2,0.5-0.3c0.2-0.1,0.3-0.2,0.5-0.4l0.5-2.9c0-0.2,0-0.4-0.1-0.5
		c-0.1-0.1-0.3-0.2-0.5-0.2h-0.2c-0.1,0-0.2,0-0.3,0.1c-0.1,0-0.2,0.1-0.3,0.2c-0.1,0.1-0.1,0.2-0.2,0.2c-0.1,0.1-0.1,0.2-0.1,0.3
		L123.4,49.2z"/>
	<path fill="#003B59" d="M127.8,42.9h0.5l-1,6.3c0,0,0,0.1,0,0.1c0,0.1,0.1,0.1,0.1,0.1c0.1,0,0.1,0.1,0.2,0.1c0.1,0,0.1,0,0.2,0
		l-0.1,0.5c-0.1,0-0.2,0-0.4-0.1c-0.1,0-0.2-0.1-0.3-0.2c-0.1-0.1-0.2-0.2-0.2-0.3c0-0.1-0.1-0.2,0-0.3L127.8,42.9z"/>
	<path fill="#003B59" d="M131.2,48.8c0,0.2-0.1,0.3-0.2,0.5c-0.1,0.2-0.2,0.3-0.3,0.4c-0.1,0.1-0.3,0.2-0.4,0.3
		c-0.2,0.1-0.3,0.1-0.5,0.1h-0.2c-0.2,0-0.3,0-0.5-0.1c-0.1-0.1-0.3-0.2-0.3-0.3c-0.1-0.1-0.2-0.2-0.2-0.4c0-0.2,0-0.3,0-0.5
		l0.5-2.9c0-0.2,0.1-0.3,0.2-0.5c0.1-0.1,0.2-0.3,0.3-0.4c0.1-0.1,0.3-0.2,0.4-0.3c0.2-0.1,0.3-0.1,0.5-0.1h0.2c0.2,0,0.3,0,0.5,0.1
		c0.1,0.1,0.3,0.2,0.3,0.3c0.1,0.1,0.2,0.2,0.2,0.4c0,0.1,0,0.3,0,0.5L131.2,48.8z M130.8,48.8l0.5-2.9c0-0.2,0-0.4-0.1-0.5
		c-0.1-0.1-0.3-0.2-0.5-0.2h-0.2c-0.1,0-0.2,0-0.3,0.1c-0.1,0-0.2,0.1-0.3,0.2c-0.1,0.1-0.1,0.1-0.2,0.2c-0.1,0.1-0.1,0.2-0.1,0.3
		l-0.5,2.9c0,0.2,0,0.4,0.1,0.5c0.1,0.1,0.3,0.2,0.5,0.2h0.2c0.1,0,0.2,0,0.3-0.1c0.1,0,0.2-0.1,0.3-0.2c0.1-0.1,0.1-0.2,0.2-0.2
		C130.7,49,130.7,48.9,130.8,48.8"/>
	<path fill="#003B59" d="M132.1,50l0.8-5.2h0.5l-0.1,0.6c0.2-0.1,0.4-0.2,0.5-0.3c0.1-0.1,0.3-0.2,0.5-0.2c0.2-0.1,0.3-0.1,0.4-0.1
		c0.2,0,0.4,0.1,0.6,0.3c0.1,0.2,0.2,0.4,0.2,0.6l-0.1,0.9h-0.5l0.1-0.9c0-0.1,0-0.2-0.1-0.3c-0.1-0.1-0.2-0.1-0.3-0.1
		c-0.1,0-0.3,0-0.4,0.1c-0.2,0.1-0.3,0.2-0.5,0.3c-0.2,0.1-0.4,0.2-0.5,0.4l-0.6,4.1H132.1z"/>
	<path fill="#003B59" d="M139.5,50H139l0.1-0.6c-0.2,0.1-0.4,0.2-0.5,0.3c-0.1,0.1-0.3,0.2-0.5,0.2c-0.2,0.1-0.3,0.1-0.4,0.1
		c-0.2,0-0.4-0.1-0.6-0.3c-0.1-0.2-0.2-0.4-0.2-0.6l0.5-3.3c0-0.2,0.1-0.3,0.2-0.5c0.1-0.2,0.2-0.3,0.3-0.4c0.1-0.1,0.3-0.2,0.4-0.3
		c0.2-0.1,0.3-0.1,0.5-0.1h0.2c0.2,0,0.3,0,0.4,0.1c0.1,0.1,0.2,0.1,0.3,0.2l0.3-2.1h0.5L139.5,50z M139.7,45.9c0-0.1,0-0.2,0-0.3
		c0-0.1-0.1-0.2-0.1-0.2c-0.1-0.1-0.1-0.1-0.2-0.2c-0.1,0-0.2-0.1-0.3-0.1h-0.2c-0.1,0-0.2,0-0.3,0.1c-0.1,0-0.2,0.1-0.3,0.2
		c-0.1,0.1-0.1,0.2-0.2,0.2c-0.1,0.1-0.1,0.2-0.1,0.3l-0.5,3.3c0,0.1,0,0.2,0.1,0.3c0.1,0.1,0.2,0.1,0.3,0.1c0.1,0,0.3,0,0.4-0.1
		c0.2-0.1,0.3-0.2,0.5-0.3c0.2-0.1,0.4-0.2,0.5-0.4L139.7,45.9z"/>
	<path fill="#003B59" d="M142,49.6c0.1,0,0.2,0,0.3-0.1c0.1,0,0.2-0.1,0.3-0.2c0.1-0.1,0.1-0.2,0.2-0.2c0.1-0.1,0.1-0.2,0.1-0.3
		l0.1-0.7h0.5l-0.1,0.7c0,0.2-0.1,0.3-0.2,0.5c-0.1,0.1-0.2,0.3-0.3,0.4c-0.1,0.1-0.3,0.2-0.4,0.3c-0.2,0.1-0.3,0.1-0.5,0.1h-0.2
		c-0.2,0-0.3,0-0.5-0.1c-0.1-0.1-0.3-0.2-0.3-0.3c-0.1-0.1-0.2-0.2-0.2-0.4c0-0.1,0-0.3,0-0.5l0.5-2.9c0-0.2,0.1-0.3,0.2-0.5
		c0.1-0.1,0.2-0.3,0.3-0.4c0.1-0.1,0.3-0.2,0.4-0.3c0.2-0.1,0.3-0.1,0.5-0.1h0.2c0.2,0,0.3,0,0.5,0.1c0.1,0.1,0.3,0.2,0.3,0.3
		c0.1,0.1,0.2,0.2,0.2,0.4c0,0.1,0,0.3,0,0.5c0,0.2-0.1,0.3-0.1,0.4c-0.1,0.1-0.1,0.2-0.2,0.3c-0.1,0.1-0.1,0.1-0.2,0.2l-2.1,1.3
		l-0.1,0.7c0,0.2,0,0.4,0.1,0.5c0.1,0.1,0.3,0.2,0.5,0.2H142z M142.9,46.5c0.1,0,0.1-0.1,0.2-0.2c0.1,0,0.1-0.1,0.1-0.2
		c0-0.1,0.1-0.2,0.1-0.3c0-0.2,0-0.4-0.1-0.5c-0.1-0.1-0.3-0.2-0.5-0.2h-0.2c-0.1,0-0.2,0-0.3,0.1c-0.1,0-0.2,0.1-0.3,0.2
		c-0.1,0.1-0.1,0.1-0.2,0.2c-0.1,0.1-0.1,0.2-0.1,0.3l-0.2,1.6L142.9,46.5z"/>
	<path fill="#003B59" d="M146.6,42.9h0.5l-1,6.3c0,0,0,0.1,0,0.1c0,0.1,0.1,0.1,0.1,0.1c0.1,0,0.1,0.1,0.2,0.1c0.1,0,0.1,0,0.2,0
		l-0.1,0.5c-0.1,0-0.2,0-0.4-0.1c-0.1,0-0.2-0.1-0.3-0.2c-0.1-0.1-0.2-0.2-0.2-0.3c0-0.1-0.1-0.2,0-0.3L146.6,42.9z"/>
	<path fill="#003B59" d="M149.5,49.4c-0.2,0.1-0.4,0.2-0.5,0.4c-0.1,0.1-0.3,0.2-0.5,0.2c-0.2,0.1-0.3,0.1-0.4,0.1
		c-0.2,0-0.4-0.1-0.6-0.3c-0.1-0.2-0.2-0.4-0.2-0.6l0.5-3.3c0-0.2,0.1-0.3,0.2-0.5c0.1-0.2,0.2-0.3,0.3-0.4c0.1-0.1,0.3-0.2,0.4-0.3
		c0.2-0.1,0.3-0.1,0.5-0.1h0.2c0.2,0,0.3,0,0.5,0.1c0.1,0.1,0.3,0.2,0.3,0.3c0.1,0.1,0.2,0.2,0.2,0.4c0,0.2,0,0.3,0,0.5l-0.5,3.3
		c0,0,0,0.1,0,0.1c0,0.1,0.1,0.1,0.1,0.1c0.1,0,0.1,0.1,0.2,0.1c0.1,0,0.1,0,0.2,0l-0.1,0.5c-0.1,0-0.2,0-0.3-0.1
		c-0.1,0-0.2-0.1-0.3-0.2c-0.1-0.1-0.2-0.1-0.2-0.2C149.5,49.5,149.5,49.4,149.5,49.4L149.5,49.4z M147.8,49.2c0,0.1,0,0.2,0.1,0.3
		c0.1,0.1,0.2,0.1,0.3,0.1c0.1,0,0.3,0,0.4-0.1c0.2-0.1,0.3-0.2,0.5-0.3c0.2-0.1,0.4-0.2,0.5-0.4l0.5-2.9c0-0.2,0-0.4-0.1-0.5
		c-0.1-0.1-0.3-0.2-0.5-0.2h-0.2c-0.1,0-0.2,0-0.3,0.1c-0.1,0-0.2,0.1-0.3,0.2c-0.1,0.1-0.1,0.2-0.2,0.2c-0.1,0.1-0.1,0.2-0.1,0.3
		L147.8,49.2z"/>
	<path fill="#003B59" d="M154.9,48.2h0.5l-0.1,0.7c0,0.2-0.1,0.3-0.2,0.5c-0.1,0.2-0.2,0.3-0.3,0.4c-0.1,0.1-0.3,0.2-0.4,0.3
		c-0.2,0.1-0.3,0.1-0.5,0.1h-0.2c-0.2,0-0.3,0-0.5-0.1c-0.1-0.1-0.3-0.2-0.3-0.3c-0.1-0.1-0.2-0.2-0.2-0.4c0-0.2,0-0.3,0-0.5
		l0.5-2.9c0-0.2,0.1-0.3,0.2-0.5c0.1-0.1,0.2-0.3,0.3-0.4c0.1-0.1,0.3-0.2,0.4-0.3c0.2-0.1,0.3-0.1,0.5-0.1h0.2c0.2,0,0.3,0,0.5,0.1
		c0.1,0.1,0.3,0.2,0.3,0.3c0.1,0.1,0.2,0.2,0.2,0.4c0,0.1,0,0.3,0,0.5l-0.1,0.7h-0.5l0.1-0.7c0-0.2,0-0.4-0.1-0.5
		c-0.1-0.1-0.3-0.2-0.5-0.2h-0.2c-0.1,0-0.2,0-0.3,0.1c-0.1,0-0.2,0.1-0.3,0.2c-0.1,0.1-0.1,0.1-0.2,0.2c-0.1,0.1-0.1,0.2-0.1,0.3
		l-0.5,2.9c0,0.2,0,0.4,0.1,0.5c0.1,0.1,0.3,0.2,0.5,0.2h0.2c0.1,0,0.2,0,0.3-0.1c0.1,0,0.2-0.1,0.3-0.2c0.1-0.1,0.1-0.2,0.2-0.2
		c0.1-0.1,0.1-0.2,0.1-0.3L154.9,48.2z"/>
	<path fill="#003B59" d="M158.6,48.8c0,0.2-0.1,0.3-0.2,0.5c-0.1,0.2-0.2,0.3-0.3,0.4c-0.1,0.1-0.3,0.2-0.4,0.3
		c-0.2,0.1-0.3,0.1-0.5,0.1H157c-0.2,0-0.3,0-0.5-0.1c-0.1-0.1-0.3-0.2-0.3-0.3c-0.1-0.1-0.2-0.2-0.2-0.4c0-0.2,0-0.3,0-0.5l0.5-2.9
		c0-0.2,0.1-0.3,0.2-0.5c0.1-0.1,0.2-0.3,0.3-0.4c0.1-0.1,0.3-0.2,0.4-0.3c0.2-0.1,0.3-0.1,0.5-0.1h0.2c0.2,0,0.3,0,0.5,0.1
		c0.1,0.1,0.3,0.2,0.3,0.3c0.1,0.1,0.2,0.2,0.2,0.4c0,0.1,0,0.3,0,0.5L158.6,48.8z M158.1,48.8l0.5-2.9c0-0.2,0-0.4-0.1-0.5
		c-0.1-0.1-0.3-0.2-0.5-0.2h-0.2c-0.1,0-0.2,0-0.3,0.1c-0.1,0-0.2,0.1-0.3,0.2c-0.1,0.1-0.1,0.1-0.2,0.2c-0.1,0.1-0.1,0.2-0.1,0.3
		l-0.5,2.9c0,0.2,0,0.4,0.1,0.5c0.1,0.1,0.3,0.2,0.5,0.2h0.2c0.1,0,0.2,0,0.3-0.1c0.1,0,0.2-0.1,0.3-0.2c0.1-0.1,0.1-0.2,0.2-0.2
		C158.1,49,158.1,48.9,158.1,48.8"/>
	<path fill="#003B59" d="M159.4,50l0.8-5.2h0.5l-0.1,0.6c0.2-0.1,0.4-0.2,0.5-0.3c0.1-0.1,0.3-0.2,0.5-0.2c0.2-0.1,0.3-0.1,0.4-0.1
		c0.2,0,0.4,0.1,0.6,0.3c0.1,0.2,0.2,0.4,0.2,0.6l-0.7,4.4h-0.5l0.7-4.4c0-0.1,0-0.2-0.1-0.3c-0.1-0.1-0.2-0.1-0.3-0.1
		c-0.1,0-0.3,0-0.4,0.1c-0.2,0.1-0.3,0.2-0.5,0.3c-0.2,0.1-0.3,0.2-0.5,0.4l-0.6,4.1H159.4z"/>
	<path fill="#003B59" d="M165.6,45.2h-1l-0.8,5.3c0,0.1-0.1,0.2-0.2,0.3c-0.1,0.1-0.2,0.2-0.3,0.3c-0.1,0.1-0.2,0.1-0.4,0.2
		c-0.1,0-0.3,0.1-0.4,0.1l0.1-0.5c0.1,0,0.1,0,0.2,0c0.1,0,0.1-0.1,0.2-0.1c0.1,0,0.1-0.1,0.2-0.1c0.1,0,0.1-0.1,0.1-0.2l0.8-5.3
		h-0.7l0.1-0.5h0.7l0.1-1c0-0.1,0.1-0.2,0.2-0.3c0.1-0.1,0.2-0.2,0.3-0.3c0.1-0.1,0.2-0.1,0.4-0.2c0.1,0,0.3-0.1,0.4-0.1l-0.1,0.5
		c-0.1,0-0.1,0-0.2,0c-0.1,0-0.1,0.1-0.2,0.1c-0.1,0-0.1,0.1-0.2,0.1c-0.1,0-0.1,0.1-0.1,0.2l-0.1,1h1L165.6,45.2z"/>
	<path fill="#003B59" d="M166.2,44.8h0.5l-0.7,4.4c0,0,0,0.1,0,0.1c0,0.1,0.1,0.1,0.1,0.1c0.1,0,0.1,0.1,0.2,0.1c0.1,0,0.1,0,0.2,0
		l-0.1,0.5c-0.1,0-0.2,0-0.4-0.1c-0.1,0-0.2-0.1-0.3-0.2c-0.1-0.1-0.2-0.2-0.2-0.3c-0.1-0.1-0.1-0.2,0-0.3L166.2,44.8z M166.8,43.9
		h-0.5l0.2-1h0.5L166.8,43.9z"/>
	<path fill="#003B59" d="M169.4,49.4c-0.2,0.1-0.4,0.2-0.5,0.4c-0.1,0.1-0.3,0.2-0.5,0.2c-0.2,0.1-0.3,0.1-0.4,0.1
		c-0.2,0-0.4-0.1-0.6-0.3c-0.1-0.2-0.2-0.4-0.2-0.6l0.5-3.3c0-0.2,0.1-0.3,0.2-0.5c0.1-0.2,0.2-0.3,0.3-0.4c0.1-0.1,0.3-0.2,0.4-0.3
		c0.2-0.1,0.3-0.1,0.5-0.1h0.2c0.2,0,0.3,0,0.5,0.1c0.1,0.1,0.3,0.2,0.3,0.3c0.1,0.1,0.2,0.2,0.2,0.4c0,0.2,0,0.3,0,0.5l-0.5,3.3
		c0,0,0,0.1,0,0.1c0,0.1,0.1,0.1,0.1,0.1c0.1,0,0.1,0.1,0.2,0.1c0.1,0,0.1,0,0.2,0l-0.1,0.5c-0.1,0-0.2,0-0.3-0.1
		c-0.1,0-0.2-0.1-0.3-0.2c-0.1-0.1-0.2-0.1-0.2-0.2C169.4,49.5,169.4,49.4,169.4,49.4L169.4,49.4z M167.7,49.2c0,0.1,0,0.2,0.1,0.3
		c0.1,0.1,0.2,0.1,0.3,0.1c0.1,0,0.3,0,0.4-0.1c0.2-0.1,0.3-0.2,0.5-0.3c0.2-0.1,0.3-0.2,0.5-0.4l0.5-2.9c0-0.2,0-0.4-0.1-0.5
		c-0.1-0.1-0.3-0.2-0.5-0.2h-0.2c-0.1,0-0.2,0-0.3,0.1c-0.1,0-0.2,0.1-0.3,0.2c-0.1,0.1-0.1,0.2-0.2,0.2c-0.1,0.1-0.1,0.2-0.1,0.3
		L167.7,49.2z"/>
	<path fill="#003B59" d="M170.9,50l0.8-5.2h0.5l-0.1,0.6c0.2-0.1,0.4-0.2,0.5-0.3c0.1-0.1,0.3-0.2,0.5-0.2c0.2-0.1,0.3-0.1,0.4-0.1
		c0.2,0,0.4,0.1,0.6,0.3c0.1,0.2,0.2,0.4,0.2,0.6l-0.7,4.4h-0.5l0.7-4.4c0-0.1,0-0.2-0.1-0.3c-0.1-0.1-0.2-0.1-0.3-0.1
		c-0.1,0-0.3,0-0.4,0.1c-0.2,0.1-0.3,0.2-0.5,0.3c-0.2,0.1-0.3,0.2-0.5,0.4l-0.6,4.1H170.9z"/>
	<polygon fill="#003B59" points="176.9,50 174.3,50 174.4,49.5 177.2,45.2 175.1,45.2 175.2,44.8 177.7,44.8 177.6,45.2 174.8,49.5 
		177,49.5 	"/>
	<path fill="#003B59" d="M179.9,49.4c-0.2,0.1-0.4,0.2-0.5,0.4c-0.1,0.1-0.3,0.2-0.5,0.2c-0.2,0.1-0.3,0.1-0.4,0.1
		c-0.2,0-0.4-0.1-0.6-0.3c-0.1-0.2-0.2-0.4-0.2-0.6l0.5-3.3c0-0.2,0.1-0.3,0.2-0.5c0.1-0.2,0.2-0.3,0.3-0.4c0.1-0.1,0.3-0.2,0.4-0.3
		c0.2-0.1,0.3-0.1,0.5-0.1h0.2c0.2,0,0.3,0,0.5,0.1c0.1,0.1,0.3,0.2,0.3,0.3c0.1,0.1,0.2,0.2,0.2,0.4c0,0.2,0,0.3,0,0.5l-0.5,3.3
		c0,0,0,0.1,0,0.1c0,0.1,0.1,0.1,0.1,0.1c0.1,0,0.1,0.1,0.2,0.1c0.1,0,0.1,0,0.2,0l-0.1,0.5c-0.1,0-0.2,0-0.3-0.1
		c-0.1,0-0.2-0.1-0.3-0.2c-0.1-0.1-0.2-0.1-0.2-0.2C180,49.5,179.9,49.4,179.9,49.4L179.9,49.4z M178.2,49.2c0,0.1,0,0.2,0.1,0.3
		c0.1,0.1,0.2,0.1,0.3,0.1c0.1,0,0.3,0,0.4-0.1c0.2-0.1,0.3-0.2,0.5-0.3c0.2-0.1,0.4-0.2,0.5-0.4l0.5-2.9c0-0.2,0-0.4-0.1-0.5
		c-0.1-0.1-0.3-0.2-0.5-0.2h-0.2c-0.1,0-0.2,0-0.3,0.1c-0.1,0-0.2,0.1-0.3,0.2c-0.1,0.1-0.1,0.2-0.2,0.2c-0.1,0.1-0.1,0.2-0.1,0.3
		L178.2,49.2z"/>
	<path fill="#003B59" d="M181.7,50c-0.1,0-0.1,0-0.2-0.1c0-0.1-0.1-0.1-0.1-0.2c0-0.1,0-0.1,0.1-0.2c0.1-0.1,0.1-0.1,0.2-0.1
		c0.1,0,0.1,0,0.2,0.1c0,0.1,0.1,0.1,0.1,0.2c0,0.1,0,0.1-0.1,0.2C181.8,49.9,181.7,50,181.7,50"/>
	<path fill="#E9C811" d="M6.9,7.7h14l-1.8-2.7c-0.6-1-1.8-1.7-2.5-1.7L5.4,3.3C4.6,3.3,4.5,4.1,5.2,5L6.9,7.7z"/>
	<path fill="#E9C811" d="M22.5,10H8.5c0,0,11.2,16.3,11.8,16.6C19.6,26.9,8.5,43.3,8.5,43.3h14.1c0,0,10.6-16.4,10.3-16.6
		C33.1,26.3,22.5,10,22.5,10"/>
	<path fill="#E9C811" d="M6.9,45.6l-1.8,2.6c-0.6,1-0.5,1.7,0.2,1.7L16.6,50c0.8,0,1.9-0.8,2.5-1.7l1.8-2.7H6.9z"/>
	<path fill="#003B59" d="M10.4,24.1c0.3-1.9,0.8-3.7,1.6-5.4c-1.8-2.5-3.5-5-4.4-6.4c-2.3,3.4-3.9,7.4-4.3,11.8H10.4z"/>
	<path fill="#003B59" d="M3.1,26.8c0,5.2,1.7,10.1,4.4,14.1c1-1.4,2.7-3.9,4.4-6.4c-1.1-2.3-1.8-4.9-1.8-7.7H3.1z"/>
	<path fill="#003B59" d="M28.1,1.6c-2.8,0-5.4,0.5-7.9,1.3c0.3,0.3,0.5,0.6,0.7,0.9l2.7,4.1h0l0.6,0.9L24.4,9
		c1.2-0.2,2.4-0.4,3.7-0.4c9.9,0,17.9,8.1,17.9,18c0,9.9-8,18-17.9,18c-1.3,0-2.5-0.1-3.7-0.4l-0.2,0.2l-0.6,0.9h0l-2.7,4.1
		c-0.2,0.3-0.5,0.6-0.7,0.9c2.5,0.8,5.2,1.3,7.9,1.3C41.8,51.7,53,40.5,53,26.6C53,12.8,41.8,1.6,28.1,1.6"/>
	<path fill="#003B59" d="M75.6,34l-0.2-7.3l-6.4,0L66.5,34h-4L72,4.7c0.1-0.4,0.4-0.7,0.8-1c0.4-0.3,0.8-0.5,1.3-0.5h3.3
		c0.5,0,0.9,0.2,1.2,0.5c0.3,0.3,0.5,0.7,0.5,1.1L79.5,34H75.6z M75.4,22.8L75.3,7.4c0-0.1,0-0.1,0-0.2c0,0,0,0,0,0h-0.1
		c0,0,0,0-0.1,0C75.1,7.3,75,7.4,75,7.5l-4.9,15.3H75.4z"/>
	<path fill="#003B59" d="M75.8,33.7l-0.2-7.3h-6.9l-2.4,7.3h-3.4l9.4-29c0.1-0.3,0.3-0.6,0.7-0.9c0.3-0.3,0.7-0.4,1.1-0.4h3.3
		c0.4,0,0.7,0.1,1,0.4c0.3,0.3,0.4,0.6,0.4,0.9l0.4,29H75.8z M75.6,7.4c0-0.1,0-0.2,0-0.3c-0.1-0.1-0.1-0.2-0.3-0.2h-0.1
		c-0.1,0-0.3,0.1-0.3,0.2c-0.1,0.1-0.1,0.2-0.1,0.3l-5,15.7h5.9L75.6,7.4z"/>
	<path fill="#003B59" d="M85.1,34.4c-1.1,0-2-0.4-2.6-1.2c-0.6-0.8-0.9-1.7-0.7-2.8l2.8-18h3.9L86,29.1c-0.1,0.5-0.1,0.9-0.1,1.2
		c0,0.1,0,0.2,0,0.2c0.1,0,0.4-0.1,1-0.4c0.6-0.3,1.2-0.6,1.8-0.9c0.7-0.4,1.5-0.8,2.3-1.2l2.4-15.4h3.9L94.1,34h-3.9l0.3-2
		c-0.5,0.4-1.1,0.7-1.6,1c-0.6,0.4-1.2,0.7-1.9,1C86.3,34.3,85.7,34.4,85.1,34.4"/>
	<path fill="#003B59" d="M97.1,12.7l-3.3,21h-3.4l0.3-2.3c-0.7,0.5-1.4,0.9-2.1,1.4c-0.6,0.4-1.2,0.7-1.9,0.9
		c-0.6,0.3-1.2,0.4-1.7,0.4c-1,0-1.8-0.3-2.4-1c-0.6-0.7-0.8-1.5-0.7-2.6l2.8-17.8h3.4L85.7,29c-0.1,0.5-0.1,0.9-0.1,1.2
		c0,0.3,0.1,0.4,0.3,0.4c0.2,0,0.6-0.1,1.2-0.4c0.6-0.3,1.2-0.6,1.8-0.9c0.7-0.4,1.6-0.8,2.5-1.3l2.4-15.3H97.1z"/>
	<path fill="#003B59" d="M104,34.4c-0.7,0-1.4-0.1-2-0.4c-0.6-0.3-1.1-0.7-1.5-1.1c-0.4-0.5-0.7-1.1-0.9-1.7
		c-0.2-0.6-0.2-1.3-0.1-2.1l2-12.7h-3l0.6-3.9h3L103,7h4l-0.9,5.4h4.7l-0.6,3.9h-4.7l-2,12.8c-0.1,0.4,0,0.7,0.2,0.9
		c0.2,0.2,0.5,0.3,0.9,0.3h2.5l-0.5,4H104z"/>
	<path fill="#003B59" d="M106.3,34.1H104c-0.7,0-1.3-0.1-1.9-0.4c-0.6-0.3-1-0.6-1.4-1.1c-0.4-0.5-0.6-1-0.8-1.6
		c-0.2-0.6-0.2-1.3-0.1-1.9l2.1-13.1h-3l0.5-3.3h3l0.9-5.4h3.4l-0.9,5.4h4.7l-0.5,3.3h-4.7l-2.1,13.1c-0.1,0.5,0,0.9,0.3,1.2
		c0.2,0.3,0.6,0.4,1.1,0.4h2.1L106.3,34.1z"/>
	<path fill="#003B59" d="M113.9,34.4c-0.7,0-1.4-0.1-2-0.4c-0.6-0.3-1.1-0.7-1.5-1.1c-0.4-0.5-0.7-1.1-0.9-1.7
		c-0.2-0.6-0.2-1.3-0.1-2.1l1.9-11.8c0.1-0.7,0.3-1.4,0.7-2.1c0.4-0.6,0.8-1.2,1.4-1.7c0.5-0.5,1.2-0.8,1.8-1.1
		c0.7-0.3,1.4-0.4,2.1-0.4h2.3c0.7,0,1.4,0.1,2,0.4c0.6,0.3,1.1,0.7,1.5,1.1c0.4,0.5,0.7,1,0.9,1.7c0.2,0.6,0.2,1.3,0.1,2.1
		l-1.9,11.8c-0.1,0.7-0.3,1.4-0.7,2c-0.4,0.6-0.8,1.2-1.4,1.7c-0.5,0.5-1.2,0.8-1.8,1.1c-0.7,0.3-1.4,0.4-2.1,0.4H113.9z M116.8,16
		c-0.4,0-0.8,0.1-1.1,0.4c-0.3,0.2-0.4,0.6-0.5,1l-1.9,11.8c-0.1,0.4,0,0.7,0.2,0.9c0.2,0.2,0.5,0.3,0.9,0.3h2.3
		c0.4,0,0.8-0.1,1.1-0.2c0.2-0.1,0.4-0.5,0.5-1.1l1.9-11.8c0.1-0.4,0-0.7-0.2-0.9c-0.2-0.2-0.5-0.3-0.9-0.3H116.8z"/>
	<path fill="#003B59" d="M122,29.1c-0.1,0.7-0.3,1.3-0.7,1.9c-0.4,0.6-0.8,1.1-1.3,1.6c-0.5,0.4-1.1,0.8-1.7,1.1
		c-0.6,0.3-1.3,0.4-2,0.4h-2.3c-0.7,0-1.3-0.1-1.9-0.4c-0.6-0.3-1-0.6-1.4-1.1c-0.4-0.5-0.6-1-0.8-1.6c-0.2-0.6-0.2-1.3-0.1-1.9
		l1.9-11.8c0.1-0.7,0.3-1.4,0.7-2c0.3-0.6,0.8-1.1,1.3-1.6c0.5-0.5,1.1-0.8,1.8-1.1c0.6-0.3,1.3-0.4,2-0.4h2.3
		c0.7,0,1.3,0.1,1.9,0.4c0.6,0.3,1,0.6,1.4,1.1c0.4,0.4,0.6,1,0.8,1.6c0.2,0.6,0.2,1.3,0.1,2L122,29.1z M118.6,29.1l1.9-11.8
		c0.1-0.5,0-0.9-0.2-1.2c-0.2-0.3-0.6-0.4-1.1-0.4h-2.3c-0.5,0-0.9,0.1-1.2,0.4c-0.3,0.3-0.5,0.7-0.6,1.2l-1.9,11.8
		c-0.1,0.5,0,0.9,0.2,1.2c0.2,0.3,0.6,0.4,1.1,0.4h2.3c0.5,0,0.9-0.1,1.2-0.3C118.3,30.3,118.5,29.8,118.6,29.1"/>
	<path fill="#003B59" d="M142.8,34l2.6-16.6c0.2-1,0-1.2,0-1.2c-0.1,0-0.3,0-1,0.4c-0.6,0.2-1.2,0.5-1.8,0.9
		c-0.7,0.4-1.5,0.8-2.3,1.2L137.8,34h-3.9l2.6-16.4c0.1-0.5,0.1-0.9,0.1-1.2c0-0.1,0-0.2,0-0.2c-0.1,0-0.4,0.1-1,0.4
		c-0.6,0.3-1.2,0.6-1.8,0.9c-0.7,0.4-1.5,0.8-2.3,1.3L129,34H125l3.4-21.6h3.9l-0.3,2.1c0.5-0.4,1.1-0.7,1.6-1
		c0.6-0.4,1.3-0.7,1.9-1c0.7-0.3,1.3-0.5,1.9-0.5c0.9,0,1.6,0.3,2.2,0.9c0.5,0.5,0.8,1,1,1.7c0.6-0.4,1.3-0.8,1.9-1.2
		c0.6-0.4,1.2-0.7,1.9-1c0.7-0.3,1.3-0.4,1.8-0.4c0.5,0,1,0.1,1.5,0.3c0.4,0.2,0.8,0.5,1.1,0.9c0.3,0.4,0.5,0.8,0.6,1.3
		c0.1,0.5,0.1,1,0.1,1.5l-2.8,18H142.8z"/>
	<path fill="#003B59" d="M140.5,15.1c0.7-0.5,1.4-0.9,2.1-1.3c0.6-0.4,1.2-0.7,1.9-0.9c0.7-0.3,1.2-0.4,1.7-0.4
		c0.5,0,0.9,0.1,1.3,0.3c0.4,0.2,0.7,0.4,1,0.8c0.3,0.3,0.5,0.7,0.6,1.2c0.1,0.4,0.1,0.9,0.1,1.4l-2.8,17.7h-3.3l2.5-16.2
		c0.2-1,0.1-1.5-0.3-1.5c-0.2,0-0.6,0.1-1.2,0.4c-0.6,0.2-1.2,0.5-1.8,0.9c-0.7,0.4-1.6,0.8-2.4,1.3l-2.4,15.3h-3.3l2.5-16.1
		c0.1-0.5,0.1-0.9,0.1-1.2c0-0.3-0.1-0.5-0.3-0.5c-0.2,0-0.6,0.1-1.2,0.4c-0.6,0.3-1.2,0.6-1.8,0.9c-0.7,0.4-1.6,0.8-2.5,1.4
		l-2.3,15.1h-3.4l3.3-21h3.4l-0.4,2.5c0.7-0.5,1.4-1,2.1-1.4c0.6-0.4,1.2-0.7,1.9-1c0.7-0.3,1.2-0.4,1.7-0.4c0.8,0,1.5,0.3,2,0.8
		c0.5,0.6,0.9,1.2,1,2L140.5,15.1z"/>
	<path fill="#003B59" d="M164.1,34.4c-1.1,0-2.1-0.3-2.9-0.9c-0.7-0.5-1.2-1.2-1.4-2c-0.2,0.1-0.4,0.3-0.7,0.5
		c-0.5,0.3-1.1,0.7-1.7,1.1c-0.6,0.4-1.2,0.7-1.9,1c-0.7,0.3-1.2,0.4-1.7,0.4c-1.1,0-2-0.4-2.6-1.2c-0.6-0.8-0.9-1.7-0.7-2.8
		l2.1-13.2c0.1-0.7,0.3-1.4,0.7-2c0.4-0.6,0.8-1.2,1.4-1.7c0.5-0.5,1.2-0.8,1.8-1.1c0.7-0.3,1.4-0.4,2.1-0.4h2.3
		c0.7,0,1.4,0.1,2,0.4c0.6,0.3,1.1,0.7,1.5,1.1c0.4,0.5,0.7,1.1,0.9,1.7c0.2,0.6,0.2,1.3,0.1,2l-1.9,11.7c-0.1,0.4,0,0.7,0.2,1
		c0.2,0.3,0.5,0.4,0.9,0.4h1.1l-0.6,4H164.1z M158.1,16c-0.4,0-0.8,0.1-1.1,0.4c-0.3,0.2-0.4,0.6-0.5,1l-2.1,13.1
		c0.4,0,0.9-0.2,1.5-0.5c0.6-0.3,1.3-0.7,1.9-1.1c0.7-0.4,1.4-0.9,2.1-1.5l1.6-10.2c0.1-0.4,0-0.7-0.2-0.9c-0.2-0.2-0.5-0.3-0.9-0.3
		H158.1z"/>
	<path fill="#003B59" d="M153.8,34.1c-1,0-1.8-0.3-2.4-1c-0.6-0.7-0.8-1.5-0.7-2.6l2.1-13.2c0.1-0.7,0.3-1.3,0.7-1.9
		c0.3-0.6,0.8-1.1,1.3-1.6c0.5-0.5,1.1-0.8,1.8-1.1c0.6-0.3,1.3-0.4,2-0.4h2.3c0.7,0,1.3,0.1,1.9,0.4c0.6,0.3,1,0.6,1.4,1.1
		c0.4,0.4,0.6,1,0.8,1.6c0.2,0.6,0.2,1.3,0.1,1.9L163.3,29c-0.1,0.5,0,0.9,0.3,1.2c0.3,0.3,0.7,0.5,1.2,0.5h0.7l-0.5,3.4h-0.8
		c-1,0-1.9-0.3-2.7-0.9c-0.7-0.6-1.2-1.3-1.5-2.3c-0.2,0.2-0.6,0.4-1.1,0.7c-0.5,0.3-1.1,0.7-1.7,1.1c-0.6,0.4-1.2,0.7-1.8,0.9
		C154.8,34,154.3,34.1,153.8,34.1 M154.2,30.5c0,0.2,0.1,0.2,0.2,0.2c0.5,0,1.1-0.2,1.7-0.5c0.7-0.3,1.3-0.7,1.9-1.1
		c0.7-0.4,1.4-1,2.2-1.5l1.6-10.3c0.1-0.5,0-0.9-0.2-1.2c-0.2-0.3-0.6-0.4-1.1-0.4h-2.3c-0.5,0-0.9,0.1-1.3,0.4
		c-0.3,0.3-0.5,0.7-0.6,1.2L154.2,30.5z"/>
	<polygon fill="#003B59" points="175.6,34 173.7,26.8 169.4,34 165.8,34 165.6,33.6 172.4,22.6 169.6,12.4 173.6,12.4 175,18.6 
		178.7,12.4 182.2,12.4 182.5,12.9 176.4,22.7 179.6,34 	"/>
	<polygon fill="#003B59" points="182.2,12.7 176.1,22.7 179.2,33.7 175.9,33.7 173.9,26 169.2,33.7 165.8,33.7 172.7,22.7 170,12.7 
		173.3,12.7 174.9,19.3 178.8,12.7 	"/>
	<line fill="none" stroke="#E9C811" stroke-width="3" stroke-miterlimit="10" x1="62.1" y1="38.8" x2="183.1" y2="38.8"/>
</g>
</svg>
